Data modeling in R
…
Were going to create a nested data frame, which we do by first creating a grouped data frame (which youve already done in another context).

Task 9: Create a data frame called by_state from the main data frame, that groups by state, and inspect it.

Task 10: Next, update this new data frame so that it is nested (simply pass it to nest). Again, inspect the data frame by typing its name in the console so see how things changed.

#nest the dataframe
by_state <- nest(by_state)

You should see that by_state has a list-column called data. List elements are accessed with [[]]. For example to see the data for Georgia, the 10th state in the alphabetized data frame, we would type by_state$data[[10]] in the console.

Task 11: Display the Georgia data in the console window.

## # A tibble: 2,385 x 10
##    county       cases  year  fips  prcp avtemp str_year  size log_cases log_size
##    <chr>        <dbl> <dbl> <dbl> <dbl>  <dbl> <chr>    <dbl>     <dbl>    <dbl>
##  1 Appling Cou~     0  2000 13001  965.   18.6 pop2000  17408         0     4.24
##  2 Atkinson Co~     0  2000 13003 1055.   18.7 pop2000   7610         0     3.88
##  3 Bacon County     0  2000 13005 1054.   18.8 pop2000  10122         0     4.01
##  4 Baker County     0  2000 13007  963.   18.9 pop2000   4053         0     3.61
##  5 Baldwin Cou~     0  2000 13009  866.   17.3 pop2000  44738         0     4.65
##  6 Banks County     0  2000 13011  993.   15.6 pop2000  14504         0     4.16
##  7 Barrow Coun~     0  2000 13013  979.   15.9 pop2000  46561         0     4.67
##  8 Bartow Coun~     0  2000 13015 1104.   15.6 pop2000  76703         0     4.88
##  9 Ben Hill Co~     0  2000 13017 1102.   18.4 pop2000  17473         0     4.24
## 10 Berrien Cou~     0  2000 13019 1083.   18.7 pop2000  16250         0     4.21
## # ... with 2,375 more rows
…
